…
source("R/functions.R")

data_nhanes <- table.glue::nhanes %>% 
 as_tibble() %>% 
 select(age, bp_sys_mmhg, bp_dia_mmhg, meds_bp) %>% 
 filter(meds_bp == 'yes', age >= 20)

data_nhanes
#> # A tibble: 4,796 x 4
#>      age bp_sys_mmhg bp_dia_mmhg meds_bp
#>    <dbl>       <dbl>       <dbl> <chr>  
#>  1    72        142         82   yes    
#>  2    73        137.        86.7 yes    
#>  3    56        157.        82   yes    
#>  4    76        127.        66.7 yes    
#>  5    60        127.        74   yes    
#>  6    65        141.        57.3 yes    
#>  7    72        160         71.3 yes    
#>  8    80        109.        53.3 yes    
#>  9    43        140         82.7 yes    
#> 10    65         NA         NA   yes    
#> # ... with 4,786 more rows
```
…
data_nhanes_impute <- data_nhanes %>% 
 # remove constant column (all meds_bp == 'yes')
 select(-meds_bp) %>% 
 # run the imputation models
 mice(method = 'pmm', m = n_imputes, printFlag = FALSE) %>% 
 # get the imputed data, action = 'all' means return every imputed data set
 complete(action = 'all') %>% 
 # convert each imputed dataset to a tibble for better printing
 map(as_tibble)

# print the first imputed dataset 
data_nhanes_impute[[1]]
#> # A tibble: 4,796 x 3
#>      age bp_sys_mmhg bp_dia_mmhg
#>    <dbl>       <dbl>       <dbl>
#>  1    72        142         82  
#>  2    73        137.        86.7
#>  3    56        157.        82  
#>  4    76        127.        66.7
#>  5    60        127.        74  
#>  6    65        141.        57.3
#>  7    72        160         71.3
#>  8    80        109.        53.3
#>  9    43        140         82.7
#> 10    65        133.        74.7
#> # ... with 4,786 more rows
```
…
``` r
data_nhanes_impute <- data_nhanes_impute %>% 
 map(
  ~ .x %>% 
   mutate(
    bp_control = if_else(
     condition = bp_sys_mmhg < 140 & bp_dia_mmhg < 90,
     true = 1,
     false = 0
    )
   )
 )

data_nhanes_impute[[1]]
#> # A tibble: 4,796 x 4
#>      age bp_sys_mmhg bp_dia_mmhg bp_control
#>    <dbl>       <dbl>       <dbl>      <dbl>
#>  1    72        142         82            0
#>  2    73        137.        86.7          1
#>  3    56        157.        82            0
#>  4    76        127.        66.7          1
#>  5    60        127.        74            1
#>  6    65        141.        57.3          0
#>  7    72        160         71.3          0
#>  8    80        109.        53.3          1
#>  9    43        140         82.7          0
#> 10    65        133.        74.7          1
#> # ... with 4,786 more rows
```
…
se_pooled <- sqrt(variance_total)

spline_pool <- tibble(
  x = spline_preds[[1]]$x,
  pred = apply(map_dfc(spline_preds, "pred"), 1, mean),
  se = se_pooled,
  ci_lwr = pred + qnorm(0.025) * se,
  ci_upr = pred + qnorm(0.975) * se
)

spline_pool
#> # A tibble: 1,000 x 5
#>        x     pred     se ci_lwr ci_upr
#>    <dbl>    <dbl>  <dbl>  <dbl>  <dbl>
#>  1  20   0.000447 0.0761 -0.149  0.150
#>  2  20.1 0.000504 0.0759 -0.148  0.149
#>  3  20.1 0.000561 0.0757 -0.148  0.149
#>  4  20.2 0.000618 0.0755 -0.147  0.149
#>  5  20.2 0.000675 0.0753 -0.147  0.148
#>  6  20.3 0.000732 0.0750 -0.146  0.148
#>  7  20.4 0.000789 0.0748 -0.146  0.147
#>  8  20.4 0.000846 0.0746 -0.145  0.147
#>  9  20.5 0.000903 0.0744 -0.145  0.147
#> 10  20.5 0.000960 0.0742 -0.144  0.146
#> # ... with 990 more rows
```
…
